{
  "_fv": 28,
  "_type": "armor",
  "definition": {
    "enableHelmet": true,
    "textureHelmet": "potato_armor_head",
    "enableBody": true,
    "textureBody": "potato_armor_body",
    "enableLeggings": true,
    "textureLeggings": "potato_armor_leggings",
    "enableBoots": true,
    "textureBoots": "potato_armor_boots",
    "creativeTab": {
      "value": "CUSTOM:Pokeysmodtab"
    },
    "armorTextureFile": "potato_armor",
    "helmetName": "baked Potato Helmet",
    "bodyName": "baked Potato Chestplate",
    "leggingsName": "baked Potato Leggings",
    "bootsName": "baked Potato Boots",
    "helmetSpecialInfo": [],
    "bodySpecialInfo": [],
    "leggingsSpecialInfo": [],
    "bootsSpecialInfo": [],
    "helmetModelName": "Default",
    "helmetModelPart": "Helmet",
    "helmetModelTexture": "From armor",
    "bodyModelName": "Default",
    "bodyModelPart": "Body",
    "armsModelPartL": "Arms L",
    "armsModelPartR": "Arms R",
    "bodyModelTexture": "From armor",
    "leggingsModelName": "Default",
    "leggingsModelPartL": "Leggings L",
    "leggingsModelPartR": "Leggings R",
    "leggingsModelTexture": "From armor",
    "bootsModelName": "Default",
    "bootsModelPartL": "Boots L",
    "bootsModelPartR": "Boots R",
    "bootsModelTexture": "From armor",
    "helmetImmuneToFire": false,
    "bodyImmuneToFire": false,
    "leggingsImmuneToFire": false,
    "bootsImmuneToFire": false,
    "maxDamage": 20,
    "damageValueHelmet": 0,
    "damageValueBody": 1,
    "damageValueLeggings": 1,
    "damageValueBoots": 0,
    "enchantability": 1,
    "toughness": 0.06,
    "knockbackResistance": 0.01,
    "equipSound": {
      "value": "entity.magmacube.squish"
    },
    "repairItems": [
      {
        "value": "Items.BAKED_POTATO"
      }
    ]
  }
}