{
  "_fv": 28,
  "_type": "procedure",
  "definition": {
    "procedurexml": "<xml xmlns=\"https://developers.google.com/blockly/xml\"><block type=\"event_trigger\" deletable=\"false\" x=\"40\" y=\"40\"><field name=\"trigger\">no_ext_trigger</field><next><block type=\"wait\"><comment pinned=\"false\" h=\"80\" w=\"160\">5 irl munuets</comment><value name=\"ticks\"><block type=\"math_number\"><field name=\"NUM\">6000</field></block></value><statement name=\"do\"><block type=\"entity_add_achievement\"><field name=\"achievement\">CUSTOM:Getnophantoms</field><value name=\"entity\"><block type=\"entity_from_deps\"></block></value></block></statement></block></next></block></xml>"
  }
}