{
  "_fv": 28,
  "_type": "musicdisc",
  "definition": {
    "texture": "disc_template",
    "name": "Placeholder music disc",
    "description": "a nice pice",
    "creativeTab": {
      "value": "CUSTOM:Pokeysmodtab"
    },
    "music": {
      "value": "CUSTOM:sound_placeholder_name"
    },
    "specialInfo": [],
    "hasGlow": false
  }
}