{
  "_fv": 28,
  "_type": "achievement",
  "definition": {
    "achievementName": "got tungsten ore? now make ingots!",
    "achievementDescription": "find your self some tungsten ore",
    "achievementIcon": {
      "value": "CUSTOM:TungstenOre"
    },
    "background": "Default",
    "disableDisplay": false,
    "showPopup": true,
    "announceToChat": true,
    "hideIfNotCompleted": false,
    "rewardLoot": [],
    "rewardRecipes": [
      "TungstenOreBlockRecipe",
      "TungstenBlockOreRecipe",
      "TungstenOreSmelting",
      "TungstenPickaxeRecipe",
      "TungstenAxeRecipe",
      "TungstenSwordRecipe",
      "TungstenShovelRecipe",
      "TungstenHoeRecipe"
    ],
    "rewardFunction": "No function",
    "rewardXP": 0,
    "achievementType": "task",
    "parent": {
      "value": "story/smelt_iron"
    },
    "triggerxml": "<xml xmlns=\"https://developers.google.com/blockly/xml\"><block type=\"item_in_inventory\" x=\"31\" y=\"38\"><value name=\"amount_l\"><block type=\"math_number\"><field name=\"NUM\">1</field></block></value><value name=\"amount_h\"><block type=\"math_number\"><field name=\"NUM\">1</field></block></value><value name=\"item\"><block type=\"mcitem_all\"><field name=\"value\">CUSTOM:TungstenOre</field></block></value><next><block type=\"advancement_trigger\" deletable=\"false\"></block></next></block></xml>"
  }
}