{
  "_fv": 28,
  "_type": "tool",
  "definition": {
    "renderType": 0,
    "texture": "tungsten_hoe",
    "customModelName": "Normal",
    "name": "Tungsten Hoe",
    "specialInfo": [],
    "creativeTab": {
      "value": "CUSTOM:Pokeysmodtab"
    },
    "toolType": "Hoe",
    "harvestLevel": 20,
    "efficiency": 24.0,
    "attackSpeed": 1.0,
    "enchantability": 140,
    "damageVsEntity": 20.0,
    "usageCount": 6280,
    "blocksAffected": [],
    "hasGlow": false,
    "repairItems": [
      {
        "value": "CUSTOM:TungstenIngot"
      }
    ],
    "immuneToFire": false,
    "stayInGridWhenCrafting": false,
    "damageOnCrafting": false
  }
}