{
  "_fv": 28,
  "_type": "recipe",
  "definition": {
    "recipeType": "Crafting",
    "xpReward": 0.0,
    "cookingTime": 200,
    "recipeRetstackSize": 1,
    "group": "",
    "recipeShapeless": false,
    "recipeSlots": [
      {
        "value": "Blocks.LOG"
      },
      {
        "value": "Blocks.LOG"
      },
      {
        "value": "Blocks.LOG"
      },
      {
        "value": "Blocks.LOG"
      },
      {
        "value": ""
      },
      {
        "value": "Blocks.LOG"
      },
      {
        "value": "Blocks.LOG"
      },
      {
        "value": ""
      },
      {
        "value": "Blocks.LOG"
      }
    ],
    "recipeReturnStack": {
      "value": "CUSTOM:Wooden_armorArmor.legs"
    },
    "name": "wooden_armor_armor_leggings_recipe",
    "namespace": "mod"
  }
}