{
  "group": "tungsten",
  "type": "minecraft:crafting_shapeless",
  "ingredients": [
    {
      "item": "pokey_mod:tungsten_block"
    }
  ],
  "result": {
    "item": "pokey_mod:tungsten_ingot",
    "count": 9
  }
}