{
  "display": {
    "icon": {
      "item": "minecraft:chainmail_chestplate"
    },
    "title": {
      "translate": "advancements.getforbitten.title"
    },
    "description": {
      "translate": "advancements.getforbitten.descr"
    },
    "frame": "task",
    "show_toast": true,
    "announce_to_chat": true,
    "hidden": false
  },
  "criteria": {
    "getforbitten": {
      "trigger": "minecraft:inventory_changed",
      "conditions": {
        "items": [
          {
            "items": [
              "minecraft:chain"
            ],
            "count": {
              "min": 1,
              "max": 4
            }
          }
        ]
      }
    }
  },
  "rewards": {
    "experience": 6000
  },
  "parent": "minecraft:story/smelt_iron"
}