{
  "display": {
    "background": "minecraft:textures/block/stone.png",
    "icon": {
      "item": "pokey_mod:potato_armor_chestplate"
    },
    "title": {
      "translate": "advancements.potatoget.title"
    },
    "description": {
      "translate": "advancements.potatoget.descr"
    },
    "frame": "task",
    "show_toast": true,
    "announce_to_chat": true,
    "hidden": false
  },
  "criteria": {
    "potatoget": {
      "trigger": "minecraft:inventory_changed",
      "conditions": {
        "items": [
          {
            "items": [
              "minecraft:potato"
            ],
            "count": {
              "min": 1,
              "max": 4
            }
          }
        ]
      }
    }
  },
  "rewards": {
    "experience": 0,
    "recipes": [
      "pokey_mod:potato_armor_armor_helmet_recipe",
      "pokey_mod:potato_armor_armor_body_recipe",
      "pokey_mod:potato_armor_armor_leggings_recipe",
      "pokey_mod:potato_armor_armor_boots_recipe",
      "pokey_mod:potato_armor_helmet_recipe",
      "pokey_mod:potato_armor_body_recipe",
      "pokey_mod:potato_armor_leggings_recipe",
      "pokey_mod:potato_armor_boots_recipe"
    ]
  }
}